…
# the header for the first column is "NA", set it manually
names(raw_data)[1] <- 'gene.name'

raw_data <- as_data_frame(raw_data)
```

# Problems


## Problem 1

Now that the raw data are loaded, your first task is to tidy the data with `tidyr`. The `cleaned_data` should look something like this:

```
# A tibble: 310,896 × 6
             gene.name plant fungus time.point   rep value
*                <chr> <chr>  <chr>      <chr> <chr> <int>
1             bgh04079   B12     A6       6hpi     1    13
2             bgh01634   B12     A6       6hpi     1    31
3  bghG000012000001001   B12     A6       6hpi     1   121
4  bghG000012000002001   B12     A6       6hpi     1     3
5             bgh00757   B12     A6       6hpi     1   253
6             bgh01273   B12     A6       6hpi     1    45
7             bgh01274   B12     A6       6hpi     1    32
8             bgh01277   B12     A6       6hpi     1     9
9             bgh06140   B12     A6       6hpi     1    47
10            bgh05774   B12     A6       6hpi     1    42
# ... with 310,886 more rows
```
…
